Project 1
…
In joining the data I used the inner join, dropping any rows in either dataset without a match. Because I was joining by the country variable, using inner join allowed me to avoid the majority of the NA values in ramen countries where a happiness score wasn’t available or where a country with a happiness score did not have any ramen represented. This mostly sacrificed countries with no ramen represented, which shouldn’t create many issues. The largest loss though, was losing a lot of Taiwan’s ramen scores, as they didn’t have an associated happiness score.

happy_ramen <- ramen_ratings %>% inner_join(happyscore, by = "country")

Tidying

The data was already tidy so I just displayed some unite and separate functions here. I first connected the brand and its variety by a “/” using“unite”. Next, I separated from that same “/” making the original two columns. Other tidying will be used throughout the rest of the project.

temp_happy <- happy_ramen %>% unite(brand, variety, col = "ramen", 
    sep = "/")
temp_happy %>% separate(ramen, into = c("brand", "variety"), 
    sep = "/")

## # A tibble: 2,608 x 7
##    review_number brand        variety               style country    stars happy
##            <dbl> <chr>        <chr>                 <chr> <chr>      <dbl> <dbl>
##  1          3180 Yum Yum      Tem Tem Tom Yum Moo … Cup   Thailand    3.75 0.6  
##  2          3179 Nagatanien   tom Yum Kung Rice Ve… Pack  Japan       2    0.587
##  3          3178 Acecook      Kelp Broth Shio Ramen Cup   Japan       2.5  0.587
##  4          3177 Maison de C… Ramen Gout Coco Poul… Cup   France      3.75 0.666
##  5          3176 Maruchan     Gotsumori Shio Yakis… Tray  Japan       5    0.587
##  6          3175 Myojo        Chukazanmai Tantanmen Cup   Japan       3.5  0.587
##  7          3173 Sapporo Ich… Momosan Ramen Tonkot… Pack  United St…  5    0.694
##  8          3172 Samlip       Hi-Myon Katsuo Udon   Pack  South Kor…  3.5  0.587
##  9          3170 Maison de C… Ramen Gout Carbonara  Cup   France      4    0.666
## 10          3169 Myojo        Mapo Men              Cup   Japan       3.5  0.587
## # … with 2,598 more rows

Wrangling

(mostly) Filter, Select, Arrange

Using select, filter, and arrange, the first table shows all of the countries with a five star ramen rating, arranged by their happiness score. Canada is the country with the highest happiness score and 5 star ramen. The second table displays all of the ramen brand + variety combinations from the United States, arranged by their ramen rating. There are 45 ramen brands + variety combinations in the US that earned a 5 star rating. The third table lists countries by their happiness score, Finland has highest happiness score.

happy_ramen %>% select(country, happy, stars) %>% filter(stars == 
    5) %>% arrange(desc(happy))

## # A tibble: 410 x 3
##    country       happy stars
##    <chr>         <dbl> <dbl>
##  1 Canada        0.723     5
##  2 Canada        0.723     5
##  3 Australia     0.722     5
##  4 Australia     0.722     5
##  5 Australia     0.722     5
##  6 Australia     0.722     5
##  7 Germany       0.708     5
##  8 United States 0.694     5
##  9 United States 0.694     5
## 10 United States 0.694     5
## # … with 400 more rows

happy_ramen %>% group_by(brand) %>% filter(country == "United States") %>% 
    arrange(desc(stars)) %>% select(brand, variety, country, 
    stars)

## # A tibble: 382 x 4
## # Groups:   brand [62]
##    brand         variety                                       country     stars
##    <chr>         <chr>                                         <chr>       <dbl>
##  1 Sapporo Ichi… Momosan Ramen Tonkotsu                        United Sta…     5
##  2 Hakubaku      Shoyu Soy Sauce Flavor Ramen                  United Sta…     5
##  3 Hakubaku      Tonkotsu Pork Flavor Ramen                    United Sta…     5
##  4 Nongshim      POP Pot Or Pan Chicken                        United Sta…     5
##  5 Jinya Ramen … Chicken Wonton Ramen                          United Sta…     5
##  6 Myojo         Yakisoba Curry Flavor                         United Sta…     5
##  7 Vite Ramen    Vegan Mushroom Shio                           United Sta…     5
##  8 Maruchan      Ramen Noodle Soup Creamy Chicken Flavor (New… United Sta…     5
##  9 Nissin        Cup Noodles Very Veggie Soy Sauce Flavor Ram… United Sta…     5
## 10 Nissin        Cup Noodle Seafood Ramen Noodle Soup          United Sta…     5
## # … with 372 more rows

happy_ramen %>% select(country, happy) %>% arrange(desc(happy))

## # A tibble: 2,608 x 2
##    country     happy
##    <chr>       <dbl>
##  1 Finland     0.781
##  2 Finland     0.781
##  3 Finland     0.781
##  4 Netherlands 0.745
##  5 Netherlands 0.745
##  6 Netherlands 0.745
##  7 Netherlands 0.745
##  8 Netherlands 0.745
##  9 Netherlands 0.745
## 10 Netherlands 0.745
## # … with 2,598 more rows

Group_By, Summarize, Mutate

This first table shows the average ramen rating for all of that country’s ramen. The second table lists the average rating for each ramen brand and their varieties. The third table shows the summary statistics (mean, min, max, median, and sd) for the happiness variable. The highest happiness rating for the countries in this dataset is 0.781 and the lowest is 0.357. The median and the mean are fairly similar, suggesting a somewhat normal distribution. The next table include the number of distinct values for all of the characteristics. Next, is the fairly similar mean and median for the star rating. Last is code showing my addition of a new categorical variable. Using the median happy rating, I went one sd up and one sd down to categorize these values as “med”, most of the values are in this category. Values above this are labeled as high and values below are low.

happy_ramen %>% group_by(country) %>% summarise(mean(stars))

## # A tibble: 35 x 2
##    country    `mean(stars)`
##    <chr>              <dbl>
##  1 Australia           3.26
##  2 Bangladesh          3.59
##  3 Brazil              4.04
##  4 Cambodia            4.2 
##  5 Canada              2.26
##  6 China               3.47
##  7 Colombia            3.29
##  8 Estonia             3.5 
##  9 Finland             3.58
## 10 France              4.19
## # … with 25 more rows

happy_ramen %>% group_by(brand) %>% summarise(mean(stars))

## # A tibble: 381 x 2
##    brand           `mean(stars)`
##    <chr>                   <dbl>
##  1 1 To 3 Noodles           4   
##  2 7 Select                 3.62
##  3 7 Select/Nissin          3.5 
##  4 A-One                    2.75
##  5 A1                       3.08
##  6 ABC                      4.21
##  7 Acecook                  3.20
##  8 Adabi                    3.81
##  9 Ah Lai                   4.75
## 10 Ajinatori                3   
## # … with 371 more rows
…
